<?xml version="1.0" standalone="no"?>
<!DOCTYPE svg PUBLIC "-//W3C//DTD SVG 1.1//EN" "http://www.w3.org/Graphics/SVG/1.1/DTD/svg11.dtd" >
<svg xmlns="http://www.w3.org/2000/svg">
<metadata>
This is a custom SVG font generated by IcoMoon.
<iconset grid="16"></iconset>
</metadata>
<defs>
<font id="iconic" horiz-adv-x="512" >
<font-face units-per-em="512" ascent="480" descent="-32" />
<missing-glyph horiz-adv-x="512" />
<glyph class="hidden" unicode="&#xf000;" d="M0,480L 512 -32L0 -32 z" horiz-adv-x="0" />
<glyph unicode="&#x21;" d="M 256,480C 114.624,480,0,365.376,0,224s 114.624-256, 256-256s 256,114.624, 256,256S 397.376,480, 256,480z M 256.496,161.056
				c-35.008,0-63.44,28.368-63.44,63.44c0,35.12, 28.432,63.504, 63.44,63.504C 291.632,288, 320,259.632, 320,224.496
				C 320,189.44, 291.632,161.056, 256.496,161.056z"  />
<glyph unicode="&#x22;" d="M 128,160c-22.56,0-43.872,4.624-64,11.776L 64-32 l 64,64l 64-64L 192,171.776 C 171.872,164.624, 150.56,160, 128,160zM0,352A128,128 1620 1 1 256,352A128,128 1620 1 1 0,352z" horiz-adv-x="256"  />
<glyph unicode="&#x23;" d="M 128,160c-22.56,0-43.872,4.624-64,11.744L 64-32 l 64,64l 64-64L 192,171.744 C 171.872,164.624, 150.56,160, 128,160zM 128,480C 57.312,480,0,422.688,0,352s 57.312-128, 128-128s 128,57.312, 128,128S 198.688,480, 128,480z M 128,288c-35.376,0-64,28.656-64,64
			s 28.624,64, 64,64s 64-28.656, 64-64S 163.376,288, 128,288z" horiz-adv-x="256"  />
<glyph unicode="&#x20;" horiz-adv-x="256" />
</font></defs></svg>