{"guests": [
    {"guestId":1, "guestName":"Architecture and the Built Environment Club", "guestOrigin":"spabeclub.cca.sg"},
    {"guestId":2, "guestName":"Chemical & Life Sciences Club", "guestOrigin":"spabeclub.cca.sg"},
    {"guestId":3, "guestName":"Communication, Arts and Social Sciences Club", "guestOrigin":"spabeclub.cca.sg"},
    {"guestId":4, "guestName":"Community Service & Cultural Club", "guestOrigin":"spabeclub.cca.sg"},
    {"guestId":5, "guestName":"Current Affairs & Debating Club", "guestOrigin":"spabeclub.cca.sg"},
    {"guestId":6, "guestName":"Digital Media & Infocomm Technology Club","guestOrigin":"spabeclub.cca.sg"},
    {"guestId":7, "guestName":"Electrical & Electronics engineering Club", "guestOrigin":"spabeclub.cca.sg"},
    {"guestId":8, "guestName":"Mechanical & Aeronautical Engineering Club", "guestOrigin":"spabeclub.cca.sg"},
    {"guestId":9, "guestName":"SIFE SP", "guestOrigin":"spabeclub.cca.sg"},
    {"guestId":10, "guestName":"Singapore Maritime Academy CLub", "guestOrigin":"spabeclub.cca.sg"},
    {"guestId":11, "guestName":"Singapore Polytechnic students Union", "guestOrigin":"spsu.cca.sg"},

    {"guestId":12, "guestName":"SP Adventures", "guestOrigin":"spadventures.cca.sg"}
]}
